…
  df %>%
    pmap_dfr(calc_hyp)
}

By crossing the two vectors, we get a nice 5x5 grid of starting points.

prepare_df(rows = 5, cols = 5)

## # A tibble: 400 x 5
##       id     x     y tile_start_point tile_id
##    <dbl> <dbl> <dbl> <chr>            <chr>  
##  1     1   2     1   1_1              1_1_1  
##  2     1   1     1   1_1              1_1_1  
##  3     1   1     2   1_1              1_1_1  
##  4     1   2     2   1_1              1_1_1  
##  5     2   1.9   1.1 1_1              1_1_2  
##  6     2   1.1   1.1 1_1              1_1_2  
##  7     2   1.1   1.9 1_1              1_1_2  
##  8     2   1.9   1.9 1_1              1_1_2  
##  9     3   1.8   1.2 1_1              1_1_3  
## 10     3   1.2   1.2 1_1              1_1_3  
## # ... with 390 more rows
…
