…
text_markets

## [1] "Dow 26573.72 372.68 1.42% S&P 500 2,952.01 41.38 1.42% Nasdaq 7,982.47 110.21 1.40% GlobalDow 2,963.39 20.61 0.70% Gold 1,514.00 1.10 0.07% Oil 52.65 -0.16 -0.30%"

If you read my first post, I used the tidytext package to do some sentiment analysis. I’m going to use it again to do some text wrangling. First, I need to unnest the sentence, which means I’m going to break up every single word into a row in a data frame. One inconveniet thing that I couldn’t get around was the fact that the unnest_tokens function doesn’t take anything other than a data.frame object as input, so I use the tibble function first.

library(tidytext)

tidy_text_df <- tibble(text = text_markets) %>% 
  unnest_tokens(word, text)

tidy_text_df

## # A tibble: 26 x 1
##    word    
##    <chr>   
##  1 dow     
##  2 26573.72
##  3 372.68  
##  4 1.42    
##  5 s       
##  6 p       
##  7 500     
##  8 2,952.01
##  9 41.38   
## 10 1.42    
## # ... with 16 more rows
…
