…
How to make the maze

library(tidyverse)
theme_set(theme_light())

This is what we start with. A rectangular x/y and xend/yend of +1, to be able to draw diagonal lines with geom_segment.

df <- crossing(x = 1:10, y = 1:10) %>% 
  mutate(xend = x+1,
         yend = y+1)

df

## # A tibble: 100 x 4
##        x     y  xend  yend
##    <int> <int> <dbl> <dbl>
##  1     1     1     2     2
##  2     1     2     2     3
##  3     1     3     2     4
##  4     1     4     2     5
##  5     1     5     2     6
##  6     1     6     2     7
##  7     1     7     2     8
##  8     1     8     2     9
##  9     1     9     2    10
## 10     1    10     2    11
## # ... with 90 more rows
…
  #call lerp twice on all rows
  df <- df %>% 
    pmap_dfr(divide_square)
  
  return(df)
}

Let’s use a 5x5 grid, and we want to interpolate a tile 3 times per side.

test <- draw_multi_line_truchet(ncol = 5, nrow = 5, num_div = 3)

test

## # A tibble: 150 x 6
##       id     d     x     y  xend  yend
##    <int> <dbl> <dbl> <dbl> <dbl> <dbl>
##  1     1  0.25  1.25  1     2     1.75
##  2     2  0.5   1.5   1     2     1.5 
##  3     3  0.75  1.75  1     2     1.25
##  4     1  0.25  1     1.25  1.75  2   
##  5     2  0.5   1     1.5   1.5   2   
##  6     3  0.75  1     1.75  1.25  2   
##  7     1  0.25  1.25  2     2     2.75
##  8     2  0.5   1.5   2     2     2.5 
##  9     3  0.75  1.75  2     2     2.25
## 10     1  0.25  1     2.25  1.75  3   
## # ... with 140 more rows
…
