…
Number of stations

library(tidyverse)

transit_cost <- readr::read_csv('https://raw.githubusercontent.com/rfordatascience/tidytuesday/master/data/2021/2021-01-05/transit_cost.csv') %>% 
  filter(!start_year %in% c("4 years", "5 years", "not start") & !is.na(start_year)) %>% 
  filter(!end_year %in% c("4 years", "5 years", "not start", "X") & !is.na(end_year)) %>% 
  mutate(across(c(start_year, end_year, real_cost), ~as.numeric(.))) %>% 
  select(id = e, start_year, end_year, country, length, tunnel, stations, real_cost) %>% 
  mutate(duration = end_year - start_year) %>% 
  mutate(across(c(tunnel, stations), ~ifelse(is.na(.), 0, .)))

transit_cost

## # A tibble: 462 x 9
##       id start_year end_year country length tunnel stations real_cost duration
##    <dbl>      <dbl>    <dbl> <chr>    <dbl>  <dbl>    <dbl>     <dbl>    <dbl>
##  1  7136       2020     2025 CA         5.7    5          6     2377.        5
##  2  7137       2009     2017 CA         8.6    8.6        6     2592         8
##  3  7138       2020     2030 CA         7.8    7.8        3     4620        10
##  4  7139       2020     2030 CA        15.5    8.8       15     7201.       10
##  5  7144       2020     2030 CA         7.4    7.4        6     4704        10
##  6  7145       2003     2018 NL         9.7    7.1        8     4030        15
##  7  7146       2020     2026 CA         5.8    5.8        5     3780         6
##  8  7147       2009     2016 US         5.1    5.1        2     1756         7
##  9  7152       2020     2027 US         4.2    4.2        2     3600         7
## 10  7153       2018     2026 US         4.2    4.2        2     2400         8
## # ... with 452 more rows
…
penalized_search is just a combination of the two parameters that we can use to train the model. In our case, we have 25 combinations.

penalized_search <- grid_regular(parameters(mixture(), penalty()), levels = 5)

penalized_search

## # A tibble: 25 x 2
##    mixture      penalty
##      <dbl>        <dbl>
##  1    0    0.0000000001
##  2    0.25 0.0000000001
##  3    0.5  0.0000000001
##  4    0.75 0.0000000001
##  5    1    0.0000000001
##  6    0    0.0000000316
##  7    0.25 0.0000000316
##  8    0.5  0.0000000316
##  9    0.75 0.0000000316
## 10    1    0.0000000316
## # ... with 15 more rows
…
The tuned results come in a 25-row dataframe, for 25 combinations of hyperparameters, and each has its own train/test split, as well as various metrics for accuracies.

doParallel::registerDoParallel()
penalized_tune <- tune_grid(
  transit_wf,
  resamples = transit_boot,
  grid = penalized_search
)

penalized_tune

## # Tuning results
## # Bootstrap sampling 
## # A tibble: 25 x 4
##    splits            id          .metrics          .notes          
##    <list>            <chr>       <list>            <list>          
##  1 <split [347/129]> Bootstrap01 <tibble [50 x 6]> <tibble [0 x 1]>
##  2 <split [347/137]> Bootstrap02 <tibble [50 x 6]> <tibble [0 x 1]>
##  3 <split [347/129]> Bootstrap03 <tibble [50 x 6]> <tibble [0 x 1]>
##  4 <split [347/121]> Bootstrap04 <tibble [50 x 6]> <tibble [0 x 1]>
##  5 <split [347/127]> Bootstrap05 <tibble [50 x 6]> <tibble [0 x 1]>
##  6 <split [347/135]> Bootstrap06 <tibble [50 x 6]> <tibble [0 x 1]>
##  7 <split [347/121]> Bootstrap07 <tibble [50 x 6]> <tibble [0 x 1]>
##  8 <split [347/129]> Bootstrap08 <tibble [50 x 6]> <tibble [0 x 1]>
##  9 <split [347/137]> Bootstrap09 <tibble [50 x 6]> <tibble [0 x 1]>
## 10 <split [347/133]> Bootstrap10 <tibble [50 x 6]> <tibble [0 x 1]>
## # ... with 15 more rows
…
penalized_final

## # Resampling results
## # Manual resampling 
## # A tibble: 1 x 6
##   splits        id           .metrics      .notes      .predictions    .workflow
##   <list>        <chr>        <list>        <list>      <list>          <list>   
## 1 <split [347/~ train/test ~ <tibble [2 x~ <tibble [0~ <tibble [115 x~ <workflo~

We can call a couple functions to extract information out of this, such as collect_predictions or collect_metrics.

penalized_final %>%
  collect_predictions()

## # A tibble: 115 x 5
##    id               .pred  .row real_cost .config             
##    <chr>            <dbl> <int>     <dbl> <chr>               
##  1 train/test split 5236.     4     7201. Preprocessor1_Model1
##  2 train/test split 2824.    10     2400  Preprocessor1_Model1
##  3 train/test split  500.    17      688. Preprocessor1_Model1
##  4 train/test split 3844.    19     3161. Preprocessor1_Model1
##  5 train/test split 1607.    22     3286. Preprocessor1_Model1
##  6 train/test split 1638.    36      252. Preprocessor1_Model1
##  7 train/test split 3482.    40      540. Preprocessor1_Model1
##  8 train/test split 5489.    41     1656  Preprocessor1_Model1
##  9 train/test split 1438.    49     1035. Preprocessor1_Model1
## 10 train/test split 3925.    57     3339  Preprocessor1_Model1
## # ... with 105 more rows
…
