…
Burritos Ratings

I got this random data from Jeremy Singer-Vine’s Data is Plural newsletter. Apparently guy works for BuzzFeed, I had no idea until today.

library(tidyverse)
library(tidymodels)
burritos <- read_csv("burritos.csv") %>% 
  filter(!is.na(overall)) %>% 
  group_by(location, type) %>% 
  summarize(score = mean(overall)) %>% 
  ungroup()

burritos

## # A tibble: 269 x 3
##    location                                            type                score
##    <chr>                                               <chr>               <dbl>
##  1 Albertacos                                          California           3.7 
##  2 Albertacos                                          Carne asada          3.2 
##  3 Alberto's 623 N Escondido Blvd, Escondido, CA 92025 Carne Asada          4.8 
##  4 Burrito Box                                         Steak with guacamo~  3.5 
##  5 Burrito Factory                                     Steak everything     3.5 
##  6 Burros and Fries                                    California           3.65
##  7 Burros and Fries                                    Carne asada          4   
##  8 Burros and Fries                                    Shrimp california    3   
##  9 Caliente Mexican Food                               California           2   
## 10 Caliente Mexican Food                               carne asada          3.75
## # ... with 259 more rows

Basically, it’s consisted of Locations of the restaurant, the type of burritos, and their score. I do some minor cleaning by filtering out NA’s and squishing duplicates.

I am interested to see if certain types of burritos are more likely to score higher than others. Let’s see how many types there are.

burritos %>% 
  count(type, sort = TRUE)

## # A tibble: 125 x 2
##    type            n
##    <chr>       <int>
##  1 California     63
##  2 Carne asada    20
##  3 Carnitas       12
##  4 Adobada         9
##  5 Surf & Turf     9
##  6 Al pastor       7
##  7 Breakfast       3
##  8 Carne Asada     3
##  9 Custom          3
## 10 Fish            3
## # ... with 115 more rows
…
Bootstrap

K, so this tidymodels is a collection of modelling packages. I am not familiar with this framework, so I’m excited to give this a shot! So it’s as simple as calling the bootstraps function, feeding it the data, how many times you want to re-sample, and the apparent argument is TRUE, when your sample is the whole population. It returns a dataframe with splits column, containing training/testing splits of data (which I don’t think we’ll need for bootstrapping), and id column.

library(tidymodels)
set.seed(1)

burritos_boot <- bootstraps(burritos_filtered,
                            times = 1000,
                            apparent = TRUE)

burritos_boot

## # Bootstrap sampling with apparent sample 
## # A tibble: 1,001 x 2
##    splits           id           
##    <list>           <chr>        
##  1 <split [120/48]> Bootstrap0001
##  2 <split [120/41]> Bootstrap0002
##  3 <split [120/47]> Bootstrap0003
##  4 <split [120/42]> Bootstrap0004
##  5 <split [120/42]> Bootstrap0005
##  6 <split [120/50]> Bootstrap0006
##  7 <split [120/43]> Bootstrap0007
##  8 <split [120/44]> Bootstrap0008
##  9 <split [120/53]> Bootstrap0009
## 10 <split [120/42]> Bootstrap0010
## # ... with 991 more rows

On top of this dataframe, we’re going to map a linear regression we did above. It’ll make more sense with the output, but essentially, we’re adding as a column the model spec, as well as the result of the linear model like the one you saw before, using each split.

burritos_models <- burritos_boot %>% 
  mutate(model = map(splits, ~ lm(data = ., score ~ 0 + type)),
         coef_info = map(model, tidy))

burritos_models

## # Bootstrap sampling with apparent sample 
## # A tibble: 1,001 x 4
##    splits           id            model  coef_info       
##    <list>           <chr>         <list> <list>          
##  1 <split [120/48]> Bootstrap0001 <lm>   <tibble [2 x 5]>
##  2 <split [120/41]> Bootstrap0002 <lm>   <tibble [2 x 5]>
##  3 <split [120/47]> Bootstrap0003 <lm>   <tibble [2 x 5]>
##  4 <split [120/42]> Bootstrap0004 <lm>   <tibble [2 x 5]>
##  5 <split [120/42]> Bootstrap0005 <lm>   <tibble [2 x 5]>
##  6 <split [120/50]> Bootstrap0006 <lm>   <tibble [2 x 5]>
##  7 <split [120/43]> Bootstrap0007 <lm>   <tibble [2 x 5]>
##  8 <split [120/44]> Bootstrap0008 <lm>   <tibble [2 x 5]>
##  9 <split [120/53]> Bootstrap0009 <lm>   <tibble [2 x 5]>
## 10 <split [120/42]> Bootstrap0010 <lm>   <tibble [2 x 5]>
## # ... with 991 more rows

The model column is the actual model, and coef_info is the results, hopefully it’s not too confusing

And a quick unnest the coef_info

burritos_coefs <- burritos_models %>% 
  unnest(coef_info)

burritos_coefs

## # A tibble: 2,002 x 8
##    splits       id         model term      estimate std.error statistic  p.value
##    <list>       <chr>      <lis> <chr>        <dbl>     <dbl>     <dbl>    <dbl>
##  1 <split [120~ Bootstrap~ <lm>  typeCali~     3.57    0.0710      50.2 1.67e-81
##  2 <split [120~ Bootstrap~ <lm>  typeOthe~     3.57    0.0826      43.2 3.39e-74
##  3 <split [120~ Bootstrap~ <lm>  typeCali~     3.58    0.0714      50.1 2.34e-81
##  4 <split [120~ Bootstrap~ <lm>  typeOthe~     3.49    0.0890      39.2 1.58e-69
##  5 <split [120~ Bootstrap~ <lm>  typeCali~     3.47    0.0886      39.2 1.82e-69
##  6 <split [120~ Bootstrap~ <lm>  typeOthe~     3.29    0.0857      38.4 1.47e-68
##  7 <split [120~ Bootstrap~ <lm>  typeCali~     3.59    0.0694      51.8 5.21e-83
##  8 <split [120~ Bootstrap~ <lm>  typeOthe~     3.38    0.0912      37.1 6.81e-67
##  9 <split [120~ Bootstrap~ <lm>  typeCali~     3.56    0.0780      45.6 8.36e-77
## 10 <split [120~ Bootstrap~ <lm>  typeOthe~     3.43    0.0780      43.9 5.82e-75
## # ... with 1,992 more rows
…
