…
library(tidyverse)
library(tidymodels)
theme_set(theme_light())

bank <- read_csv("bank_cleaned.csv") %>% 
  janitor::clean_names() %>% 
  rename(id = x1)

bank_rough <- bank %>%
  select(-response_binary) %>% 
  mutate_if(is.character, factor)

bank_rough

## # A tibble: 40,841 x 17
##       id   age job   marital education default balance housing loan    day month
##    <dbl> <dbl> <fct> <fct>   <fct>     <fct>     <dbl> <fct>   <fct> <dbl> <fct>
##  1     0    58 mana~ married tertiary  no         2143 yes     no        5 may  
##  2     1    44 tech~ single  secondary no           29 yes     no        5 may  
##  3     2    33 entr~ married secondary no            2 yes     yes       5 may  
##  4     5    35 mana~ married tertiary  no          231 yes     no        5 may  
##  5     6    28 mana~ single  tertiary  no          447 yes     yes       5 may  
##  6     7    42 entr~ divorc~ tertiary  yes           2 yes     no        5 may  
##  7     8    58 reti~ married primary   no          121 yes     no        5 may  
##  8     9    43 tech~ single  secondary no          593 yes     no        5 may  
##  9    10    41 admi~ divorc~ secondary no          270 yes     no        5 may  
## 10    11    29 admi~ single  secondary no          390 yes     no        5 may  
## # ... with 40,831 more rows, and 6 more variables: duration <dbl>,
## #   campaign <dbl>, pdays <dbl>, previous <dbl>, poutcome <fct>, response <fct>
…
Then we can juice a recipe, which gives us the product of our instructions

juiced

## # A tibble: 1,168 x 18
##       id   age balance default education_secon~ education_terti~ housing_yes
##    <dbl> <dbl>   <dbl> <fct>              <dbl>            <dbl>       <dbl>
##  1  3242    48    1913 no                     1                0           1
##  2  9043    48    3458 no                     1                0           0
##  3 26863    30    1472 no                     1                0           1
##  4   905    35     267 no                     0                1           1
##  5 43558    68    7945 no                     0                0           0
##  6 44162    31    2166 no                     0                1           0
##  7 27274    31      11 no                     1                0           1
##  8 20682    58    2609 no                     1                0           0
##  9  8464    35     412 no                     1                0           1
## 10 15581    29     -14 no                     0                1           0
## # ... with 1,158 more rows, and 11 more variables: job_blue.collar <dbl>,
## #   job_entrepreneur <dbl>, job_management <dbl>, job_retired <dbl>,
## #   job_self.employed <dbl>, job_services <dbl>, job_technician <dbl>,
## #   job_other <dbl>, loan_yes <dbl>, marital_married <dbl>,
## #   marital_single <dbl>
…
And we can pull the metrics like so:

tune_res %>% 
  collect_metrics()

## # A tibble: 40 x 7
##     mtry min_n .metric  .estimator  mean     n std_err
##    <int> <int> <chr>    <chr>      <dbl> <int>   <dbl>
##  1     1     6 accuracy binary     0.752    10 0.00403
##  2     1     6 roc_auc  binary     0.851    10 0.00726
##  3     2    39 accuracy binary     0.757    10 0.00300
##  4     2    39 roc_auc  binary     0.859    10 0.00679
##  5     3    35 accuracy binary     0.762    10 0.00348
##  6     3    35 roc_auc  binary     0.862    10 0.00622
##  7     4    15 accuracy binary     0.766    10 0.00350
##  8     4    15 roc_auc  binary     0.861    10 0.00611
##  9     4    17 accuracy binary     0.768    10 0.00340
## 10     4    17 roc_auc  binary     0.862    10 0.00567
## # ... with 30 more rows
…
It seems like min_n is the most accurate around 5 & 10, while mtry was around 25, 35. Now that we know a little better, let’s try a bunch of combinations in those ranges to train our model!

Second Tuning

We need a new “grid”. We’re going to give it the ranges we want to test, and levels, which controls the number of possible combinations (trying too many would take too long!)

rf_grid <- grid_regular(
  mtry(range = c(5, 15)),
  min_n(range = c(25, 35)),
  levels = 10
)

rf_grid

## # A tibble: 100 x 2
##     mtry min_n
##    <int> <int>
##  1     5    25
##  2     6    25
##  3     7    25
##  4     8    25
##  5     9    25
##  6    10    25
##  7    11    25
##  8    12    25
##  9    13    25
## 10    15    25
## # ... with 90 more rows
…
