…
This format is a little difficult to work with, because the unspoken agreement of most programming languages is that rows represent each instance of an object, and columns represent the characteristics about the objects. But what we have here is one characteristics (revenue) spanned over 14 columns.

To remedy this, let’s put the years in one column, and another column that represents the revenue for that year. In other words, I’m going to transpose the data. Firstly, I’m going to gather the data, which grabs the names of each column as key and what’s inside that column as value. I chose to use the words key and value, but you can use any other words that make the most sense to you.

company_revenues %>% 
  gather(key, value)

## # A tibble: 30 x 2
##    key     value    
##    <chr>   <chr>    
##  1 company Apple    
##  2 company Microsoft
##  3 2005    13931    
##  4 2005    39788    
##  5 2006    19315    
##  6 2006    44282    
##  7 2007    24578    
##  8 2007    51122    
##  9 2008    37491    
## 10 2008    60420    
## # ... with 20 more rows

You get the idea, there were two elements in a single column, and they are basically organized into the format of column name, and corresponding column value. A neat trick: if you exclude a column from gather, the data will collect around them. What do I mean by this? Let’s exclude company.

company_revenues %>% 
  gather(key, value, -company)

## # A tibble: 28 x 3
##    company   key   value
##    <chr>     <chr> <dbl>
##  1 Apple     2005  13931
##  2 Microsoft 2005  39788
##  3 Apple     2006  19315
##  4 Microsoft 2006  44282
##  5 Apple     2007  24578
##  6 Microsoft 2007  51122
##  7 Apple     2008  37491
##  8 Microsoft 2008  60420
##  9 Apple     2009  42905
## 10 Microsoft 2009  58437
## # ... with 18 more rows
…
